{
  "usa": {
    "*": { "loading_bloqueado": "tinypass.com\/*" },
    "wsj.com": { "referenciador": {"referenciador": "https://t.co/T1323aaaa", "agente-utilizador": "Mozilla/5.0 (iPhone; CPU iPhone OS 10_2 like Mac OS X) AppleWebKit/602.1.32 (KHTML, like Gecko) Mobile/14C92 Twitter for iPhone"}  },
    "washingtonpost.com": { "loading_bloqueado": "pwapi.washingtonpost.com\/*"},
    "nytimes.com": { "referenciador": {"referenciador":"https://www.google.com/", "agente-utilizador":"Mozilla/5.0 (compatible; Googlebot/2.1; +http://www.google.com/bot.html)"} , "loading_bloqueado": "nyt.com\/js\/mtr.js"},
    "usatoday.com": { "referenciador": {"referenciador":"https://www.google.com/", "agente-utilizador":"Mozilla/5.0 (compatible; Googlebot/2.1; +http://www.google.com/bot.html)"}  },
    "latimes.com": { "correr_comando":"localStorage.clear();"},
    "nydailynews.com": { "referenciador": {"referenciador":"https://www.google.com/", "agente-utilizador":"Mozilla/5.0 (compatible; Googlebot/2.1; +http://www.google.com/bot.html)"}  },
    "nypost.com": { "referenciador": {"referenciador":"https://www.google.com/", "agente-utilizador":"Mozilla/5.0 (compatible; Googlebot/2.1; +http://www.google.com/bot.html)"}  },
    "chicago.suntimes.com": { "referenciador": {"referenciador":"https://www.google.com/", "agente-utilizador":"Mozilla/5.0 (compatible; Googlebot/2.1; +http://www.google.com/bot.html)"}  },
    "denverpost.com": { "referenciador": {"referenciador":"https://www.google.com/", "agente-utilizador":"Mozilla/5.0 (compatible; Googlebot/2.1; +http://www.google.com/bot.html)"}  },
    "chicagotribune.com": { "referenciador": {"referenciador":"https://www.google.com/", "agente-utilizador":"Mozilla/5.0 (compatible; Googlebot/2.1; +http://www.google.com/bot.html)"}  },
    "dallasnews.com": { "referenciador": {"referenciador":"https://www.google.com/", "agente-utilizador":"Mozilla/5.0 (compatible; Googlebot/2.1; +http://www.google.com/bot.html)"}  },
    "newsday.com": { "referenciador": {"referenciador":"https://www.google.com/", "agente-utilizador":"Mozilla/5.0 (compatible; Googlebot/2.1; +http://www.google.com/bot.html)"}  },
    "houstonchronicle.com": { "referenciador": {"referenciador":"https://www.google.com/", "agente-utilizador":"Mozilla/5.0 (compatible; Googlebot/2.1; +http://www.google.com/bot.html)"}  },
    "ocregister.com": { "referenciador": {"referenciador":"https://www.google.com/", "agente-utilizador":"Mozilla/5.0 (compatible; Googlebot/2.1; +http://www.google.com/bot.html)"}  },
    "nj.com": { "referenciador": {"referenciador":"https://www.google.com/", "agente-utilizador":"Mozilla/5.0 (compatible; Googlebot/2.1; +http://www.google.com/bot.html)"}  },
    "tampabay.com": { "referenciador": {"referenciador":"https://www.google.com/", "agente-utilizador":"Mozilla/5.0 (compatible; Googlebot/2.1; +http://www.google.com/bot.html)"}  },
    "plaindealer.com": { "referenciador": {"referenciador":"https://www.google.com/", "agente-utilizador":"Mozilla/5.0 (compatible; Googlebot/2.1; +http://www.google.com/bot.html)"}  },
    "inquirer.com": { "referenciador": {"referenciador":"https://www.google.com/", "agente-utilizador":"Mozilla/5.0 (compatible; Googlebot/2.1; +http://www.google.com/bot.html)"}  },
    "startribune.com": { "referenciador": {"referenciador":"https://www.google.com/", "agente-utilizador":"Mozilla/5.0 (compatible; Googlebot/2.1; +http://www.google.com/bot.html)"}  },
    "azcentral.com": { "referenciador": {"referenciador":"https://www.google.com/", "agente-utilizador":"Mozilla/5.0 (compatible; Googlebot/2.1; +http://www.google.com/bot.html)"}  },
    "reviewjournal.com": { "referenciador": {"referenciador":"https://www.google.com/", "agente-utilizador":"Mozilla/5.0 (compatible; Googlebot/2.1; +http://www.google.com/bot.html)"}  },
    "sandiegouniontribune.com": { "referenciador": {"referenciador":"https://www.google.com/", "agente-utilizador":"Mozilla/5.0 (compatible; Googlebot/2.1; +http://www.google.com/bot.html)"}  },
    "bostonglobe.com": { "referenciador": {"referenciador":"https://www.google.com/", "agente-utilizador":"Mozilla/5.0 (compatible; Googlebot/2.1; +http://www.google.com/bot.html)"}  },
    "ajc.com": { "referenciador": {"referenciador":"https://www.google.com/", "agente-utilizador":"Mozilla/5.0 (compatible; Googlebot/2.1; +http://www.google.com/bot.html)"}  },
    "newyorker.com": { "referenciador": {"referenciador":"https://www.google.com/", "agente-utilizador":"Mozilla/5.0 (compatible; Googlebot/2.1; +http://www.google.com/bot.html)"}  },
    "forbes.com": { "referenciador": {"referenciador":"https://www.google.com/", "agente-utilizador":"Mozilla/5.0 (compatible; Googlebot/2.1; +http://www.google.com/bot.html)"}  },
    "online.barrons.com": { "referenciador": {"referenciador":"https://www.google.com/", "agente-utilizador":"Mozilla/5.0 (compatible; Googlebot/2.1; +http://www.google.com/bot.html)"}  },
    "barrons.com": { "referenciador": {"referenciador":"https://www.google.com/", "agente-utilizador":"Mozilla/5.0 (compatible; Googlebot/2.1; +http://www.google.com/bot.html)"}  },
    "investingdaily.com": { "referenciador": {"referenciador":"https://www.google.com/", "agente-utilizador":"Mozilla/5.0 (compatible; Googlebot/2.1; +http://www.google.com/bot.html)"}  },
    "realmoney.thestreet.com.com": { "referenciador": {"referenciador":"https://www.google.com/", "agente-utilizador":"Mozilla/5.0 (compatible; Googlebot/2.1; +http://www.google.com/bot.html)"}  },
    "hbr.org": { "referenciador": {"referenciador":"https://www.google.com/", "agente-utilizador":"Mozilla/5.0 (compatible; Googlebot/2.1; +http://www.google.com/bot.html)"}, "loading_bloqueado": "hbr.org/service/user/*", "bolachas": { "hbr.org":["_hbr_u", "hbr_f"] } }
  },
  "uk": {
    "thesun.co.uk": { "referenciador": {"referenciador":"https://www.google.com/", "agente-utilizador":"Mozilla/5.0 (compatible; Googlebot/2.1; +http://www.google.com/bot.html)"}  },
    "dailymail.co.uk": { "referenciador": {"referenciador":"https://www.google.com/", "agente-utilizador":"Mozilla/5.0 (compatible; Googlebot/2.1; +http://www.google.com/bot.html)"}  },
    "mirror.co.uk": { "referenciador": {"referenciador":"https://www.google.com/", "agente-utilizador":"Mozilla/5.0 (compatible; Googlebot/2.1; +http://www.google.com/bot.html)"}  },
    "telegraph.co.uk": { "referenciador": {"referenciador":"https://www.google.com/", "agente-utilizador":"Mozilla/5.0 (compatible; Googlebot/2.1; +http://www.google.com/bot.html)"}  },
    "dailystar.co.uk": { "referenciador": {"referenciador":"https://www.google.com/", "agente-utilizador":"Mozilla/5.0 (compatible; Googlebot/2.1; +http://www.google.com/bot.html)"}  },
    "express.co.uk": { "referenciador": {"referenciador":"https://www.google.com/", "agente-utilizador":"Mozilla/5.0 (compatible; Googlebot/2.1; +http://www.google.com/bot.html)"}  },
    "inews.co.uk": { "referenciador": {"referenciador":"https://www.google.com/", "agente-utilizador":"Mozilla/5.0 (compatible; Googlebot/2.1; +http://www.google.com/bot.html)"}  },
    "ft.com": { "referenciador": {"referenciador":"https://www.google.com/", "agente-utilizador":"Mozilla/5.0 (compatible; Googlebot/2.1; +http://www.google.com/bot.html)"}  },
    "economist.com": { "loading_bloqueado": "/api/tinypass.min.js"  },
    "theguardian.com": {  },
    "independent.co.uk": { "referenciador": {"referenciador":"https://www.google.com/", "agente-utilizador":"Mozilla/5.0 (compatible; Googlebot/2.1; +http://www.google.com/bot.html)"}  },
    "dailyrecord.co.uk": { "referenciador": {"referenciador":"https://www.google.com/", "agente-utilizador":"Mozilla/5.0 (compatible; Googlebot/2.1; +http://www.google.com/bot.html)"}  }
  },
  "pt": {
    "abola.pt": { "referenciador": {"referenciador":"https://www.google.com/", "agente-utilizador":"Mozilla/5.0 (compatible; Googlebot/2.1; +http://www.google.com/bot.html)"}  },
    "cmjornal.xl.pt": { "referenciador": {"referenciador":"https://www.google.com/", "agente-utilizador":"Mozilla/5.0 (compatible; Googlebot/2.1; +http://www.google.com/bot.html)"}  },
    "destak.pt": { "referenciador": {"referenciador":"https://www.google.com/", "agente-utilizador":"Mozilla/5.0 (compatible; Googlebot/2.1; +http://www.google.com/bot.html)"}  },
    "dn.pt": { "referenciador": {"referenciador":"https://www.google.com/", "agente-utilizador":"Mozilla/5.0 (compatible; Googlebot/2.1; +http://www.google.com/bot.html)"}  },
    "expresso.sapo.pt": { "referenciador": {"referenciador":"https://www.google.com/", "agente-utilizador":"Mozilla/5.0 (compatible; Googlebot/2.1; +http://www.google.com/bot.html)"}  },
    "ionline.pt": { "referenciador": {"referenciador":"https://www.google.com/", "agente-utilizador":"Mozilla/5.0 (compatible; Googlebot/2.1; +http://www.google.com/bot.html)"}  },
    "visao.pt": { "referenciador": {"referenciador":"https://www.google.com/", "agente-utilizador":"Mozilla/5.0 (compatible; Googlebot/2.1; +http://www.google.com/bot.html)"}  },
    "jornaldenegocios.pt": { "referenciador": {"referenciador":"https://www.google.com/", "agente-utilizador":"Mozilla/5.0 (compatible; Googlebot/2.1; +http://www.google.com/bot.html)"}  },
    "jn.pt": { "referenciador": {"referenciador":"https://www.google.com/", "agente-utilizador":"Mozilla/5.0 (compatible; Googlebot/2.1; +http://www.google.com/bot.html)"}  },
    "ojogo.pt": { "referenciador": {"referenciador":"https://www.google.com/", "agente-utilizador":"Mozilla/5.0 (compatible; Googlebot/2.1; +http://www.google.com/bot.html)"}  },
    "jornaleconomico.sapo.pt": { "referenciador": {"referenciador":"https://www.google.com/", "agente-utilizador":"Mozilla/5.0 (compatible; Googlebot/2.1; +http://www.google.com/bot.html)"}  },
    "publico.pt": { "loading_bloqueado": "tinypass.com/" },
    "record.xl.pt": { "referenciador": {"referenciador":"https://www.google.com/", "agente-utilizador":"Mozilla/5.0 (compatible; Googlebot/2.1; +http://www.google.com/bot.html)"}  },
    "sol.sapo.pt": { "referenciador": {"referenciador":"https://www.google.com/", "agente-utilizador":"Mozilla/5.0 (compatible; Googlebot/2.1; +http://www.google.com/bot.html)"}  },
    "vidaeconomica.pt": { "referenciador": {"referenciador":"https://www.google.com/", "agente-utilizador":"Mozilla/5.0 (compatible; Googlebot/2.1; +http://www.google.com/bot.html)"}  },
    "eco.pt": { "referenciador": {"referenciador":"https://www.google.com/", "agente-utilizador":"Mozilla/5.0 (compatible; Googlebot/2.1; +http://www.google.com/bot.html)"}  }
  },
  "es": {
    "elpais.es": { "referenciador": {"referenciador":"https://www.google.com/", "agente-utilizador":"Mozilla/5.0 (compatible; Googlebot/2.1; +http://www.google.com/bot.html)"}  },
    "elmundo.es": { "referenciador": {"referenciador":"https://www.google.com/", "agente-utilizador":"Mozilla/5.0 (compatible; Googlebot/2.1; +http://www.google.com/bot.html)"}  },
    "abc.es": { "referenciador": {"referenciador":"https://www.google.com/", "agente-utilizador":"Mozilla/5.0 (compatible; Googlebot/2.1; +http://www.google.com/bot.html)"}  },
    "lavanguardian.com": { "referenciador": {"referenciador":"https://www.google.com/", "agente-utilizador":"Mozilla/5.0 (compatible; Googlebot/2.1; +http://www.google.com/bot.html)"}  },
    "elperiodico.com": { "referenciador": {"referenciador":"https://www.google.com/", "agente-utilizador":"Mozilla/5.0 (compatible; Googlebot/2.1; +http://www.google.com/bot.html)"}  },
    "larazon.es": { "referenciador": {"referenciador":"https://www.google.com/", "agente-utilizador":"Mozilla/5.0 (compatible; Googlebot/2.1; +http://www.google.com/bot.html)"}  },
    "elcorreo.com": { "referenciador": {"referenciador":"https://www.google.com/", "agente-utilizador":"Mozilla/5.0 (compatible; Googlebot/2.1; +http://www.google.com/bot.html)"}  },
    "lavozdegalicia.com": { "referenciador": {"referenciador":"https://www.google.com/", "agente-utilizador":"Mozilla/5.0 (compatible; Googlebot/2.1; +http://www.google.com/bot.html)"}  },
    "diariovasco.com": { "referenciador": {"referenciador":"https://www.google.com/", "agente-utilizador":"Mozilla/5.0 (compatible; Googlebot/2.1; +http://www.google.com/bot.html)"}  }
  }
}